
#include "vsfmodel.h"
 static void mdlInitializeConditions(SimStruct *S)
 {
   real_T *xD   = ssGetRealDiscStates(S);
   real_T *xC   = ssGetContStates(S);
        const real_T  *params  = (const real_T *)mxGetData(PARAM_DEF0(S));

    xD[0] =  0;
    xD[1] =  0;
    xD[2] =  0;
    xD[3] =  0;
    xD[4] =  0;
    xD[5] =  0;
    xD[6] =  0;
    xD[7] =  0;
    xD[8] =  0;
    xD[9] =  0;
    xD[10] =  0;
    xD[11] =  0;
    xD[12] =  0;
    xD[13] =  0;
    xD[14] =  0;
    xD[15] =  0;
    
    xC[0] =  0;
    xC[1] =  0;
    xC[2] =  0;
    xC[3] =  0;
    xC[4] =  INITIAL_SPEED;
    xC[5] =  INITIAL_SPEED/REFF;
    xC[6] =  INITIAL_SPEED/REFF;
    xC[7] =  INITIAL_SPEED/REFF;
    xC[8] =  INITIAL_SPEED/REFF;
 }